group,confirmed_dataset,submitted_time,,,,,,,,,,
a_group3,https://data.world/datagov-uk/9aa522bb-bab4-4352-9e76-a47bd32139fc,01/11/2022 10:46,,,,,,,,,,
a_group162,https://data.world/musigma123/indian-premiere-leaguelatest,01/11/2022 11:01,,,,,,,,,,
a_group63,https://data.world/datadavis/nba-salaries,01/11/2022 11:48,,,,,,,,,,
a_group7,https://data.world/promptcloud/fashion-products-on-amazon-com,01/11/2022 12:51,,,,,,,,,,
b_group51,https://data.world/ahalps/social-influence-on-shopping,01/11/2022 12:52,,,,,,,,,,
a_group144,https://data.world/mhoangvslev/steam-games-dataset,01/11/2022 13:48,,,,,,,,,,
a_group47,https://data.world/alexandra/fortune-500,02/11/2022 04:43,,,,,,,,,,
a_group109,https://data.world/chandrasekar/countries-visited-by-indian-prime-minister-narendra-modihttps://data.world/chandrasekar/countries-visited-by-indian-prime-minister-narendra-modi,02/11/2022 10:30,,,,,,,,,,
a_group41,https://data.world/nirmalkumar/ipl-2020,02/11/2022 12:19,,,,,,,,,,
a_group142,https://data.world/mean8/bmw-dataset,02/11/2022 14:53,,,,,,,,,,
a_group44,https://data.world/amercader/car-fuel-emissions-2000-2013,02/11/2022 16:16,,,,,,,,,,
a_group58,https://data.world/data-society/bank-marketing-data,02/11/2022 21:16,added manually a_group,,,,,,,,,
a_group89,https://data.world/databeats/household-power-consumption,02/11/2022 22:16,,,,,,,,,,
b_group4,https://data.world/indoagri/indian-year-wise-crop-production,02/11/2022 22:26,,,,,,,,,,
a_group190,https://data.world/data-society/pokemon-with-stats,02/11/2022 22:47,,,,,,,,,,
a_group139,https://data.world/atlas-query/student-club,03/11/2022 01:41,,,,,,,,,,
a_group13,https://data.world/turba/mental-stress-during-covid-19-source-data,03/11/2022 12:17,,,,,,,,,,
b_group13,https://data.world/jamaica/crashes-and-road-accident,03/11/2022 13:42,,,,,,,,,,
a_group181,https://data.world/garyhoov/military-deaths-by-cause,03/11/2022 14:56,,,,,,,,,,
a_group5,https://data.world/mkhuzaima/ipl-data-till-2017,03/11/2022 16:24,,,,,,,,,,
a_group160,https://data.world/datagov-uk/80dc9542-7b2a-48f5-bbf4-ccc7040d36af,03/11/2022 17:22,,,,,,,,,,
a_group121,https://data.world/rohk/us-gun-violence-dataset-2021-2014,03/11/2022 17:47,,,,,,,,,,
a_group130,https://data.world/datagov-uk/a89d2f04-86ad-4f75-a4b1-8204dba8e0ed,03/11/2022 19:09,,,,,,,,,,
a_group174,https://data.world/chas/2018-2019-premier-league-matches,03/11/2022 19:44,,,,,,,,,,
a_group129,https://data.world/uci/heart-disease,03/11/2022 20:58,,,,,,,,,,
a_group74,https://data.world/finance/data-professional-salary-survey,03/11/2022 21:34,,,,,,,,,,
a_group12,https://data.world/swordsconsulting/hkjc-18-19-season-racing-results,03/11/2022 22:03,,,,,,,,,,
a_group68,https://data.world/marshalldatasolution/breast-cancer,03/11/2022 22:26,,,,,,,,,,
a_group115,https://data.world/datafiniti/hotel-reviews,04/11/2022 10:43,,,,,,,,,,
a_group145,https://data.world/new-york-city/nyc-jobs/file/NYC_Jobs.csv,04/11/2022 11:57,,,,,,,,,,
b_group80,https://data.world/mchadhar/chicagocrime-dataset,04/11/2022 12:05,,,,,,,,,,
a_group75,https://data.world/annapurani93/carbon-emission-january-march-2022,04/11/2022 13:52,,,,,,,,,,
a_group45,https://data.world/datagov-uk/79e025d2-e411-45b5-b96f-06919ee698c7,04/11/2022 16:35,,,,,,,,,,
a_group192,https://data.world/healthdatany/b3b6-bu6t,04/11/2022 16:44,,,,,,,,,,
a_group102,https://data.world/kcmillersean/billboard-hot-100-1958-2017,04/11/2022 16:56,,,,,,,,,,
a_group108,https://data.world/maheepmahat/data-of-usage-of-social-media-by-students-between-age-17-22/,04/11/2022 17:46,,,,,,,,,,
a_group95,https://data.world/finance/uk-largest-companies,04/11/2022 18:26,,,,,,,,,,
a_group124,https://data.world/wesmagee/2017-espn-world-fame-100,04/11/2022 18:45,,,,,,,,,,
a_group94,https://data.world/amillerbernd/texas-amusement-park-accidents,04/11/2022 19:55,,,,,,,,,,
a_group20,https://data.world/bryantahb/crime-in-atlanta-2009-2017,04/11/2022 22:55,,,,,,,,,,
a_group52,https://data.world/inderz/india-district-level-school-report-card,04/11/2022 23:03,,,,,,,,,,
a_group70,https://data.world/city-of-phoenix/598be280-a5ce-4c77-b802-321756332dfb,04/11/2022 23:55,,,,,,,,,,
b_group46,https://data.world/ian/world-religious-populations,05/11/2022 09:03,,,,,,,,,,
a_group133,https://data.world/aroissues/forbes-global-2000-2008-2019,05/11/2022 10:54,,,,,,,,,,
a_group178,https://data.world/ourworldindata/affordability-of-diets,05/11/2022 11:55,,,,,,,,,,
b_group38,https://data.world/kevinnayar/us-national-parks,05/11/2022 12:51,,,,,,,,,,
a_group43,https://data.world/wfp/626e809c-c4fc-467b-a60c-129acb5e9320,05/11/2022 13:02,,,,,,,,,,
a_group50,https://data.world/satjain/credit-card-fraud-detection,05/11/2022 14:54,,,,,,,,,,
a_group80,https://data.world/montgomery-county-of-maryland/e0398c0e-2622-41be-bc12-bf6f46bb2040,05/11/2022 15:17,,,,,,,,,,
b_group63,https://data.world/datagov-uk/93ab473e-e20d-4784-b464-12024997889c,05/11/2022 15:46,,,,,,,,,,
a_group87,https://data.world/siyeh/comparison-of-bee-population-numbers,05/11/2022 19:36,,,,,,,,,,
a_group93,https://data.world/josh-nbu/books,05/11/2022 19:48,,,,,,,,,,
a_group26,https://data.world/sevenup13/youtube-video-and-channel-metadata,05/11/2022 20:58,,,,,,,,,,
a_group4,https://data.world/ofili/hotel-booking-demand,05/11/2022 23:01,,,,,,,,,,
b_group31,https://data.world/dx76/marketplacebiretail,05/11/2022 23:45,,,,,,,,,,
a_group59,https://data.world/hdro/d41b5824-e40e-4fd6-9c8f-900eb2616f3c,06/11/2022 10:55,,,,,,,,,,
a_group110,https://data.world/chasewillden/cryptocurrency-price-by-date-2013-february-2018,06/11/2022 11:12,,,,,,,,,,
b_group48,https://data.world/kevinnayar/world-religion-peace-gdp,06/11/2022 11:31,,,,,,,,,,
a_group27,https://data.world/cancerdatahp/lung-cancer-data,06/11/2022 11:40,,,,,,,,,,
a_group17,https://data.world/pandhrealtors/us-federal-reserve-rate-vs-average-30-year-mortgage,06/11/2022 15:09,,,,,,,,,,
a_group86,https://data.world/data-society/air-traffic-passenger-data,06/11/2022 16:06,,,,,,,,,,
b_group53,https://query.data.world/s/7tgnq3cwnkhcyqojsmscvyafzxi7pv,06/11/2022 18:09,invalid url,,,,,,,,,
a_group176,https://data.world/diversityindata/june-is-pride-month,06/11/2022 18:26,,,,,,,,,,
a_group83,https://data.world/gonzandrobles/netflix-movies-and-series,06/11/2022 18:27,,,,,,,,,,
a_group147,https://data.world/makeovermonday/2018w51,06/11/2022 18:45,,,,,,,,,,
a_group78,https://data.world/datagov-uk/e34119e3-a7bb-459d-85fc-3112e3700ec5,06/11/2022 19:32,,,,,,,,,,
b_group39,https://data.world/dkmohnaty/cricket-world-cup-winners,06/11/2022 19:58,,,,,,,,,,
a_group34,https://data.world/indoagri/indian-states-wise-crop-production,06/11/2022 20:32,,,,,,,,,,
a_group136,https://data.world/missdataviz/superstore-2021,06/11/2022 20:43,,,,,,,,,,
b_group34,https://data.world/datagov-uk/32638f4f-3650-4f51-a811-c344da7768bf,06/11/2022 21:06,,,,,,,,,,
a_group191,https://data.world/health/big-cities-health,06/11/2022 21:53,,,,,,,,,,
b_group97,https://data.world/wfp/dc663585-4b6f-46ae-a6d6-b2f3e4ea32b5,06/11/2022 21:56,,,,,,,,,,
b_group19,https://data.world/makeovermonday/2019w23,06/11/2022 22:07,,,,,,,,,,
a_group141,https://data.world/sonaksh/bank-customer-credit-details,06/11/2022 22:36,,,,,,,,,,
a_group92,https://data.world/stackermedia/twelfth-census-of-the-us-country-of-birth-by-city,06/11/2022 22:53,,,,,,,,,,
a_group82,https://data.world/blab/b-corp-impact-data,06/11/2022 23:12,,,,,,,,,,
b_group89,https://data.world/gautam2510/credit-card-dataset,06/11/2022 23:14,,,,,,,,,,
a_group48,https://data.world/aurielle/the-essential-landscape-of-enterprise-a-i-companies,07/11/2022 04:33,,,,,,,,,,
b_group71,https://data.world/data-ny-gov/szye-wmt3,07/11/2022 10:07,,,,,,,,,,
a_group117,https://data.world/us-doe-gov/d3515c40-45e9-4f80-982f-6f212a0dcf51,07/11/2022 10:32,,,,,,,,,,
a_group167,https://data.world/dataman-udit/india-covid-19-state-wise-data,07/11/2022 11:45,,,,,,,,,,
a_group170,https://data.world/datagov-uk/314c6ceb-7f99-40b3-be30-90b398bd9671,07/11/2022 11:46,,,,,,,,,,
a_group19,https://data.world/ahalps/social-influence-on-shopping/,07/11/2022 11:48,,,,,,,,,,
a_group118,Netflix Shows - dataset by chasewillden | data.world,07/11/2022 12:04,,,,,,,,,,
a_group97,https://data.world/datum-world/ipl-dataset,07/11/2022 12:27,,,,,,,,,,
a_group60,https://data.world/uci/tennis-major-tournament-match-statistics,07/11/2022 12:28,,,,,,,,,,
b_group37,https://data.world/adamhelsinger/undp-gender-inequality-index,07/11/2022 13:06,,,,,,,,,,
a_group166,https://data.world/fivethirtyeight/hate-crimes,07/11/2022 13:30,,,,,,,,,,
a_group53,https://data.world/promptcloud/amazon-product-listing-data,07/11/2022 13:48,,,,,,,,,,
a_group175,https://data.world/hdx/bb0c6cef-990b-4172-87b6-19596b965a68,07/11/2022 14:04,,,,,,,,,,
b_group14,https://data.world/saleem786/car-insurance-claims-analysis,07/11/2022 14:09,,,,,,,,,,
a_group116,https://data.world/makeovermonday/2022w40,07/11/2022 14:37,,,,,,,,,,
a_group56,https://data.world/crowdflower/wearable-technology-database,07/11/2022 14:46,,,,,,,,,,
a_group67,https://data.world/datagov-uk/f2dcee4f-4680-4b49-b086-4839250dea2d,07/11/2022 14:47,,,,,,,,,,
a_group88,https://data.world/ericparker/university-student-satisfaction-survey-results,07/11/2022 15:13,,,,,,,,,,
b_group86,https://data.world/makeovermonday/2021w24,07/11/2022 15:27,,,,,,,,,,
a_group184,https://data.world/garyhoov/unemployment-rate-by-city,07/11/2022 16:41,,,,,,,,,,
b_group17,https://data.world/paruizhincapie/btc-price-oil-price-us-dollar-index-covid-19,07/11/2022 17:17,,,,,,,,,,
a_group154,https://data.world/dataquest/bank-and-credit-card-complaints,07/11/2022 17:47,,,,,,,,,,
a_group22,https://data.world/johnsnowlabs/cancer-types-grouped-by-age,07/11/2022 18:44,,,,,,,,,,
a_group112,https://data.world/rgauna/gold-vs-oil-vs-cpi/,07/11/2022 19:35,,,,,,,,,,
a_group21,https://data.world/brcmapsteam/11258f2c-6ee4-41b8-bf8f-ac1ff1fe21ac,07/11/2022 19:35,,,,,,,,,,
?group50,https://data.world/city-of-tempe/5cd6ea99-5186-4b0a-bed4-7f22ed1a1fc4,07/11/2022 19:48,,,,,,,,,,
a_group179,https://data.world/us-hhs-gov/f7078ba3-964c-4c83-91ec-03dc28c3a7b4,07/11/2022 19:52,,,,,,,,,,
a_group122,https://data.world/data-society/game-of-thrones,07/11/2022 20:12,,,,,,,,,,
a_group164,https://data.world/johnsnowlabs/types-of-weapon-used-in-aggravated-assault-and-robbery-by-state-2015,07/11/2022 20:12,,,,,,,,,,
a_group169,https://data.world/finance/australia-largest-companies,07/11/2022 20:31,,,,,,,,,,
a_group198,https://data.world/makeovermonday/2019w46,07/11/2022 20:54,,,,,,,,,,
a_group77,https://data.world/data-literacy/world-bank-population-life-expectancy-urbanization,07/11/2022 20:56,,,,,,,,,,
a_group135,https://data.world/dcereijo/player-scores,07/11/2022 21:06,,,,,,,,,,
a_group79,https://data.world/fivethirtyeight/births,07/11/2022 22:07,,,,,,,,,,
b_group27,https://data.world/hdx/2f564400-943b-4c46-9c65-a447355c8587,07/11/2022 22:09,,,,,,,,,,
a_group180,https://data.world/garyhoov/largest-food-packaged-goods-companies-2016,07/11/2022 22:14,,,,,,,,,,
b_group91,https://data.world/mahe432/movies,07/11/2022 22:14,,,,,,,,,,
b_group74,https://data.world/earino/churn,07/11/2022 22:23,,,,,,,,,,
b_group61,https://data.world/dhs/major-sport-venues-usage,07/11/2022 22:23,,,,,,,,,,
b_group47,https://data.world/nitesh-jha/hospital,07/11/2022 22:23,,,,,,,,,,
a_group197,https://data.world/informatics-edu/diabetes-prediction,07/11/2022 22:26,,,,,,,,,,
b_group16,https://data.world/fivethirtyeight/marriage,07/11/2022 22:33,,,,,,,,,,
a_group126,https://data.world/us-usda-gov/b8387ce9-5213-49e1-808f-6bf34a5d92fa,07/11/2022 22:50,,,,,,,,,,
b_group18,https://data.world/data-society/fatal-police-shootings,07/11/2022 22:50,,,,,,,,,,
a_group96,https://data.world/sambeardsley/boardgamegeek,07/11/2022 23:12,,,,,,,,,,
b_group44,https://data.world/datagov-uk/02220e8c-6fac-4ad9-ab58-39ce4415a33f,07/11/2022 23:43,,,,,,,,,,
a_group148,https://data.world/tesladeaths/tesla-deaths,07/11/2022 23:43,,,,,,,,,,
a_group123,https://data.world/msantolini/individual-performance-in-team,07/11/2022 23:51,,,,,,,,,,
a_group46,https://data.world/bramwax/video-games-sales,08/11/2022 00:53,,,,,,,,,,
a_group18,https://data.world/sports/olympics,08/11/2022 01:02,,,,,,,,,,
a_group29,https://data.world/makeovermonday/2020w11-self-reported-life-satisfaction-vs-gdp-per-capita,08/11/2022 01:31,,,,,,,,,,
a_group161,https://data.world/tylerudite/airports-airlines-and-routes,08/11/2022 08:39,,,,,,,,,,
b_group28,https://data.world/makeovermonday/life-expectancy-at-birth-by-country,08/11/2022 09:25,,,,,,,,,,
a_group999,https://data.world/a_group999/dataset1,08/11/2022 10:30,,,,,,,,,,
b_group20,https://data.world/ferdi2005/bitcoin-price,08/11/2022 11:46,,,,,,,,,,
a_group188,https://data.world/xprizeai-ai/titanic-disaster-dataset,08/11/2022 11:55,,,,,,,,,,
a_group194,https://data.world/shaheer-rajpoot/comparison-cousin-marriage-stillbirth,08/11/2022 12:09,,,,,,,,,,
a_group128,https://data.world/deviramanan2016/nki-breast-cancer-data,08/11/2022 12:20,,,,,,,,,,
b_group56,https://data.world/makeovermonday/2019w31,08/11/2022 13:04,,,,,,,,,,
a_group140,https://data.world/aaditya/crop-wise-and-state-wise-land-holdings-in-india,08/11/2022 13:34,,,,,,,,,,
a_group182,https://data.world/johnsnowlabs/uk-global-burden-of-disease-by-risk-factor,08/11/2022 13:41,,,,,,,,,,
a_group186,https://data.world/theresa-tonev/project-3-euro-stats-subsets,08/11/2022 13:47,,,,,,,,,,
b_group7,https://data.world/city-of-ny/b9uf-7skp,08/11/2022 13:52,,,,,,,,,,
a_group100,https://data.world/achou/nba-draft-combine-measurements,08/11/2022 13:57,,,,,,,,,,
a_group39,https://data.world/mattschroyer/netflix-original-series,08/11/2022 14:00,,,,,,,,,,
a_group69,https://data.world/chhs/2e8b0cd1-0caa-4066-9475-bc44cb171474,08/11/2022 14:08,,,,,,,,,,
a_group91,https://data.world/fivethirtyeight/college-majors,08/11/2022 14:09,,,,,,,,,,
a_group149,https://data.world/khyati2811/sales,08/11/2022 14:21,,,,,,,,,,
a_group40,https://data.world/technology/silicon-valley-diversity-data,08/11/2022 14:25,,,,,,,,,,
a_group98,https://data.world/markmarkoh/coronavirus-data,08/11/2022 14:36,,,,,,,,,,
a_group199,https://data.world/datagov-uk/0e475490-b6ad-4cfe-aab2-06aac9975ca8,08/11/2022 14:40,,,,,,,,,,
a_group61,https://data.world/thelinuxfoundation/2022-openssf-survey,08/11/2022 14:43,,,,,,,,,,
b_group103,https://data.world/reisha0111/prevalence-depressive-disorders-male-female-2019,08/11/2022 14:47,,,,,,,,,,
b_group29,https://data.world/fivethirtyeight/avengers,08/11/2022 14:49,,,,,,,,,,
a_group6,https://data.world/jarnoma/activity-history,08/11/2022 14:59,,,,,,,,,,
b_group15,https://data.world/rodikurucsmvp/nba-draft-ageperformance-relationship-data,08/11/2022 15:06,,,,,,,,,,
a_group85,https://data.world/socialmediadata/most-followed-on-instagram,08/11/2022 15:15,,,,,,,,,,
a_group101,https://data.world/usaid/supply-chain-shipment-pricing,08/11/2022 15:20,duplicate datasets allocation this one is used in RQ ,,,,,,,,,
b_group75,https://data.world/angelimbrenda/final,08/11/2022 15:30,,,,,,,,,,
b_group92,https://data.world/publicsafety/law-enforcement-surveillance-technologies,08/11/2022 15:47,,,,,,,,,,
a_group171,https://data.world/mschnars/us-homelessness-master-data,08/11/2022 15:49,,,,,,,,,,
a_group163,https://data.world/opensnippets/nykaa-product-reviews-dataset,08/11/2022 15:50,,,,,,,,,,
b_group77,https://data.world/alphatango90/netflix-analysis,08/11/2022 15:56,,,,,,,,,,
a_group177,https://data.world/priyankad0993/sequels,08/11/2022 16:18,,,,,,,,,,
a_group38,https://data.world/worldbank/climate-change-data,08/11/2022 16:42,,,,,,,,,,
b_group75,https://data.world/oraynorbr899s/covidmadrid,08/11/2022 16:46,,,,,,,,,,
b_group42,https://data.world/madan-andan/got-rating,08/11/2022 16:47,,,,,,,,,,
b_group1,https://data.world/wfp/0298c598-d312-4771-b564-f4ac4d831f05,08/11/2022 17:06,,,,,,,,,,
a_group193,https://data.world/makeovermonday/2019w43,08/11/2022 17:33,,,,,,,,,,
a_group2,https://data.world/health/healthcare-infections-state,08/11/2022 18:31,,,,,,,,,,
b_group11,https://data.world/westlakecjw/rugby-world-cup-2003-final,08/11/2022 18:31,,,,,,,,,,
b_group52,https://data.world/awram/food-nutritional-values,08/11/2022 18:57,,,,,,,,,,
a_group72,https://data.world/makeovermonday/2017-w-52-christmas-trees-sold-in-the-us,08/11/2022 19:03,,,,,,,,,,
a_group165,https://data.world/chhs/obesity-in-ca,08/11/2022 19:04,,,,,,,,,,
a_group54,https://data.world/uci/appliances-energy-prediction,08/11/2022 19:58,,,,,,,,,,
b_group9,https://data.world/smartcolumbusos/36080b44-e3ff-49fb-9f49-490ecadc6953,08/11/2022 20:00,,,,,,,,,,
a_group84,https://data.world/nrippner/ols-regression-challenge,08/11/2022 20:08,,,,,,,,,,
a_group11,https://data.world/health/breast-cancer-wisconsin,08/11/2022 20:10,,,,,,,,,,
b_group83,https://data.world/ahersam/movie,08/11/2022 20:23,,,,,,,,,,
a_group158,https://data.world/happs11/study-of-crimes-in-india-2015-and-comparison-w-2014,08/11/2022 20:35,,,,,,,,,,
b_group65,https://data.world/ndsouza/airlines,08/11/2022 20:57,,,,,,,,,,
a_group42,https://data.world/state-of-connecticut/v8zu-wxrr,08/11/2022 21:04,,,,,,,,,,
a_group103,https://data.world/asikon/foodmart-ltd,08/11/2022 21:08,,,,,,,,,,
a_group49,https://data.world/makeovermonday/2018w40-five-year-cancer-survival-rates-in-america,08/11/2022 21:09,,,,,,,,,,
b_group100,https://data.world/mr-robot/alcohol-v-life-expectancy,08/11/2022 21:10,,,,,,,,,,
a_group71,https://data.world/technology/kaggle-machine-learning-data-science-survey,08/11/2022 21:19,,,,,,,,,,
b_group59,https://data.world/imf/asia-and-pacific-regional-econ,08/11/2022 21:23,,,,,,,,,,
a_group106,https://data.world/health/death-rate-and-life-expectancy,08/11/2022 21:36,,,,,,,,,,
b_group26,https://data.world/himan/imdb-movie-dataset,08/11/2022 21:50,,,,,,,,,,
a_group137,https://data.world/city-of-ny/mn2p-34if,08/11/2022 22:01,,,,,,,,,,
b_group54,https://data.world/datagov-uk/884fc1f4-a50c-495f-b8ad-5b2be5624b16,08/11/2022 22:03,,,,,,,,,,
a_group73,https://data.world/dublin-city/2b1c5901-1a85-49f7-9d45-a3b0675c0920,08/11/2022 22:03,,,,,,,,,,
b_group66,https://data.world/datagov-uk/4551d515-2236-4891-874a-6bd986d961ad,08/11/2022 22:13,,,,,,,,,,
a_group66,https://data.world/kylesykes/st-louis-city-crime-data,08/11/2022 22:28,,,,,,,,,,
b_group22,https://data.world/yansian/popular-video-games,08/11/2022 22:30,,,,,,,,,,
a_group146,https://data.world/bls/unemployment-rate,08/11/2022 23:02,,,,,,,,,,
b_group67,https://data.world/datagov-uk/787845cf-fbc7-4fae-a7de-eb231d35e2c9,08/11/2022 23:06,,,,,,,,,,
a_group173,https://catalog.data.gov/dataset/behavioral-risk-factor-data-heart-disease-amp-stroke-prevention,08/11/2022 23:13,,,,,,,,,,
a_group159,https://data.world/datagov-uk/fe93d7c4-321d-49aa-ac97-908b64b69fe5,08/11/2022 23:17,,,,,,,,,,
a_group125,https://data.world/datacrunch/prevalence-of-vision-problems-in-the-u-s,08/11/2022 23:21,,,,,,,,,,
a_group183,https://data.world/makeovermonday/2019w1,08/11/2022 23:22,,,,,,,,,,
a_group14,https://data.world/adamk98/twitter,08/11/2022 23:25,,,,,,,,,,
a_group31,https://data.world/us-nasa-gov/aa9d044e-36e5-4761-8553-f99d5ace5cfa,08/11/2022 23:33,,,,,,,,,,
a_group32,https://data.humdata.org/dataset/fundamental-labour-rights,08/11/2022 23:33,,,,,,,,,,
b_group57,https://data.world/ash018/credit-card-transaction,08/11/2022 23:35,,,,,,,,,,
b_group25,https://data.world/chasewillden/fox-news-facebook-shares-vs-likes,08/11/2022 23:36,,,,,,,,,,
a_group150,https://data.world/joelshapiro/kmci940spring2020,08/11/2022 23:37,,,,,,,,,,
?,"https://techport.nasa.gov/view/12428#:~:text=project%20introduction,contact%20techport",08/11/2022 23:41,,,,,,,,,,
a_group105,https://data.world/ndsouza/alcohol-v-life-expectancy,08/11/2022 23:41,,,,,,,,,,
a_group76,https://data.world/sya/nobel-prize-winners,08/11/2022 23:43,,,,,,,,,,
b_group69,https://data.world/cnoza/cryptocurrencies,08/11/2022 23:46,,,,,,,,,,
b_group6,https://data.world/dkmohnaty/asia-cup-winners-in-cricket,08/11/2022 23:50,,,,,,,,,,
a_group187,https://data.world/lakshmi888/agriculture-data,08/11/2022 23:52,,,,,,,,,,
a_group62,https://data.world/kacurtis/usda-ers-food-availability-coffee-tea-and-cocoa,08/11/2022 23:58,,,,,,,,,,
b_group40,https://data.world/city-of-phoenix/e8a3e774-4a20-47b8-88e9-f69fbe1f4f02,09/11/2022 00:02,,,,,,,,,,
b_group79,https://data.world/johnsnowlabs/myocardial-infarction-hospital-discharge-by-region,09/11/2022 00:10,,,,,,,,,,
a_group107,https://data.world/agriculture/crop-production,09/11/2022 04:12,,,,,,,,,,
b_group21,johnsnowlabs/housing-and-development-complaint-problems,09/11/2022 09:23,,,,,,,,,,
a_group55,https://data.world/neilgallen/official-world-golf-ranking,09/11/2022 12:32,,,,,,,,,,
b_group35,https://query.data.world/s/4f7qsmzsc7ygmo6i4xsoz223ybvyhj,09/11/2022 12:50,invalid url,,,,,,,,,
b_group8,https://data.world/nasa/effects-of-climate-change-on-global-food-production-v-1,09/11/2022 13:04,,,,,,,,,,
a_group119,https://data.world/city-of-ny/9ji4-nien,09/11/2022 14:26,,,,,,,,,,
b_group5,https://data.world/harishkgarg/indian-students-abroad-mar-2017,09/11/2022 14:29,,,,,,,,,,
b_group90,https://data.world/chhs/unemployment-2004-2013,09/11/2022 14:52,,,,,,,,,,
b_group49,https://query.data.world/s/blib7outro4dmvqlqhhgvbhs6jufim,09/11/2022 14:52,invalid url,,,,,,,,,
a_group196,https://data.world/health/hivaids-living-cases-2012,09/11/2022 14:56,,,,,,,,,,
b_group23,https://data.world/dublin-city/bd3d7060-6b40-4424-a5f1-3ea722ec4c01,09/11/2022 15:11,,,,,,,,,,
a_group143,https://data.world/eruditepanda/fortune-1000-list-2018,09/11/2022 15:25,,,,,,,,,,
a_group195,https://data.world/chasewillden/musical-instrument-courses-from-udemy,09/11/2022 15:48,,,,,,,,,,
a_group157,https://data.world/marineinstitute/2c714ec1-4c77-4cfa-b809-49f1a43b0def,09/11/2022 16:34,,,,,,,,,,
a_group28,https://data.world/kudem/heart-disease-dataset,09/11/2022 16:50,,,,,,,,,,
a_group30,https://data.world/chhs/smoking-prevalence-in-adults,09/11/2022 17:10,,,,,,,,,,
b_group24_groupteam_research_&_development_project,https://data.world/rappunzel/game-of-the-year-winners,09/11/2022 17:10,,,,,,,,,,
b_group78,https://data.world/ram-baskaran/sachin-tendulkar-test-data,09/11/2022 18:07,,,,,,,,,,
a_group57,https://data.world/city-of-ny/mtt6-ywt4,09/11/2022 18:13,,,,,,,,,,
a_group23,https://data.world/jeffgswanson/electric-vehicle-by-year,09/11/2022 19:42,,,,,,,,,,
b_group30,https://data.world/oecd/length-of-hospital-stay,09/11/2022 20:28,,,,,,,,,,
a_group131,https://data.world/arka-chatterjee/violence-against-women-rate2020,09/11/2022 20:36,,,,,,,,,,
b_group76,https://data.world/prasert/rotten-tomatoes-top-movies-by-genre,09/11/2022 22:11,,,,,,,,,,
a_group37,https://data.world/datagov-uk/5c42c4ab-4c8b-4f4d-8349-7d152babf029,09/11/2022 22:55,,,,,,,,,,
b_group102,https://data.world/datagov-uk/b063ff63-7d19-4c9d-a817-26a64dfdce57,10/11/2022 00:07,,,,,,,,,,
b_group99,https://data.world/dcopendata/traffic-signal,10/11/2022 00:08,,,,,,,,,,
a_group111,https://data.world/nz-stats-nz/393ca5c8-d49e-4917-af9b-a96da5603031,10/11/2022 00:39,,,,,,,,,,
b_group98,https://data.world/dash/austin-crime-report-2015,10/11/2022 04:13,,,,,,,,,,
b_group33,https://data.world/datagov-uk/3305bc04-8357-467c-a099-a4f03d605d2e,10/11/2022 11:05,,,,,,,,,,
a_group8,https://data.world/marineinstitute/35a18e98-2706-4eb3-b064-46a8a66baf91,10/11/2022 11:51,,,,,,,,,,
b_group94,https://data.world/data-ny-gov/h9zr-j4pg,10/11/2022 12:27,,,,,,,,,,
a_group152,https://data.world/alice-c/nfl,10/11/2022 12:29,,,,,,,,,,
b_group68,https://data.world/shaheer-rajpoot/gdp-and-import-growth,10/11/2022 14:03,,,,,,,,,,
a_group33,https://data.world/selcukyilmaz/fitness-dataset-of-healthy-man-130-days,10/11/2022 14:06,,,,,,,,,,
b_group64,https://data.world/smartcolumbusos/5f960cf1-9655-4db2-8271-c32999927f37,10/11/2022 14:09,,,,,,,,,,
a_group99,https://data.world/sai20aji/ev-data,10/11/2022 14:13,,,,,,,,,,
a_group185,https://data.world/oecd/crop-production,10/11/2022 14:19,,,,,,,,,,
b_group45,https://ourworldindata.org/grapher/co2-emissions-vs-gdp,10/11/2022 14:49,,,,,,,,,,
b_group84,https://data.world/dcopendata/9927e456ac024b11811323812934edbb-12,10/11/2022 16:24,,,,,,,,,,
b_group87,https://data.world/fmsyukur/fifa-20-players-analysis,10/11/2022 16:38,,,,,,,,,,
b_group50,https://data.world/evangower/english-premier-league-2021-22-match-data,10/11/2022 17:38,,,,,,,,,,
a_group156,https://data.world/rlionheart92/nhs-england-monthly-hospital-activity-data,10/11/2022 18:14,,,,,,,,,,
a_group151,https://data.world/hdx/97e007af-4733-4b60-a472-a733f10dedd5,10/11/2022 18:56,,,,,,,,,,
a_group1,https://data.world/fivethirtyeight/tennis-time,10/11/2022 19:53,,,,,,,,,,
b_group70,https://query.data.world/s/2qsxwew2cppkruobfqlfnth4cbiihz,10/11/2022 20:52,invalid url,,,,,,,,,
b_group73,https://data.world/datafiniti/consumer-reviews-of-amazon-products,10/11/2022 22:16,,,,,,,,,,
a_group90,https://data.world/agriculture/genetically-engineered-crops,10/11/2022 23:02,,,,,,,,,,
a_group134,https://data.world/oecd/meat-consumption,11/11/2022 00:30,,,,,,,,,,
b_group3,https://data.world/finance/usa-largest-companies,11/11/2022 02:58,,,,,,,,,,
b_group2,https://data.world/us-arlington-county/7b3f2309-bea6-4305-b581-8c722debb24f,11/11/2022 08:35,,,,,,,,,,
a_group114,https://data.world/makeovermonday/2019w50,11/11/2022 08:53,,,,,,,,,,
a_group16,https://data.world/drhimanshur/motives-of-reported-cyber-crimes-in-india-state-wise-2013,11/11/2022 09:41,,,,,,,,,,
b_group10,https://data.world/datagov-uk/0c8c0d09-7add-454d-84c7-a362ded66906,11/11/2022 09:44,,,,,,,,,,
b_group60,https://data.world/datagov-uk/0609eec8-d6ca-4c85-9a3e-83d4464b9c69,11/11/2022 10:47,,,,,,,,,,
a_group172,https://data.world/sumitrock/carprice,11/11/2022 10:52,,,,,,,,,,
a_group57,https://data.world/romanian-data/swimming-dataset-top-200-world-times,11/11/2022 11:04,,,,,,,,,,
a_group153,https://data.world/garyhoov/us-calories-from-food-groups,11/11/2022 11:46,,,,,,,,,,
a_group155,https://data.world/oecd/crude-oil-production,11/11/2022 12:29,,,,,,,,,,
a_group25,https://data.world/city-of-ny/xeg4-ic28,11/11/2022 12:36,,,,,,,,,,
a_group138,https://data.world/oecd/wireless-mobile-broadband-subscriptions,11/11/2022 12:37,,,,,,,,,,
a_group189,https://data.world/city-of-tempe/51559bce-a8ac-4305-a742-0ca0f5f851aa,11/11/2022 13:17,,,,,,,,,,
a_group51,https://data.world/datafiniti/vegetarian-vegan-restaurants,11/11/2022 13:54,,,,,,,,,,
b_group12,https://data.world/vizwiz/mock-car-sales,11/11/2022 14:07,,,,,,,,,,
a_group81,https://data.world/marineinstitute/7f8e6a7d-91b6-4fb3-8d36-571b8a8e6052,11/11/2022 14:55,,,,,,,,,,
b_group43,https://data.world/who/93e35ea7-7d0c-427e-a2d5-aa72074e2050,11/11/2022 15:28,,,,,,,,,,
a_group10,https://data.world/brianray/yelp-reviews,11/11/2022 15:58,,,,,,,,,,
a_group15,https://data.world/rajanand/prison-in-india,11/11/2022 16:33,,,,,,,,,,
a_group104,https://data.world/proydu/world-university-rankings-2019-20,11/11/2022 16:36,,,,,,,,,,
a_group35,https://data.world/dcopendata/crime-incidents-in-2009,11/11/2022 16:50,,,,,,,,,,
a_group132,https://data.world/shoaibanjum/heart-disease-diastolic-function-dysfunction,11/11/2022 17:57,,,,,,,,,,
a_group200,https://data.world/aurielle/inc-5000-europe-2019,11/11/2022 18:13,manually corrected was allocated to a_groupb79,,,,,,,,,
a_group127,https://data.world/gpal/tesla-vehicle-deliveries,11/11/2022 18:36,,,,,,,,,,
a_group36,https://data.world/revanthkrishnaa/amazon-uk-sales-forecasting-2018-2021,11/11/2022 19:26,,,,,,,,,,
a_group168,https://data.world/data-society/airlines-delay,11/11/2022 19:44,,,,,,,,,,
b_group58,https://data.world/crawlfeeds/amazon-uk-shoes-dataset,11/11/2022 20:26,,,,,,,,,,
a_group64,https://data.world/brandon-telle/2016-hacker-news-salary-survey-results,11/11/2022 21:29,,,,,,,,,,
b_group101,https://data.world/cityofaustin/cfer-vyii,11/11/2022 22:47,,,,,,,,,,
b_group88,https://data.world/fivethirtyeight/political-donation-history-of-wealthy-sports-ownerss,11/11/2022 23:20,,,,,,,,,,
a_group120,https://query.data.world/s/osfe2izbbb6hlrmel6g2fb2n5gvusv,12/11/2022 08:35,invalid url,,,,,,,,,
b_group85,https://data.world/aliraza/indian-premier-league-2018-batting-and-bowling-data,12/11/2022 22:23,,,,,,,,,,
b_group32,https://data.world/us-doe-gov/fd895ff6-a322-453a-9391-e253e0d05220,13/11/2022 23:50,,,,,,,,,,
b_group45,https://data.world/ahalps/which-social-media-millennials-care-about-most,14/11/2022 09:53,,,,,,,,,,
b_group45,https://data.world/dekhpakistan/pakistan-covid-19-dataset,15/11/2022 13:16,,,,,,,,,,
a_group120,https://data.world/agriculture/worldwide-gov-indicators,16/11/2022 15:29,,,,,,,,,,
a_group120,https://data.world/agriculture/worldwide-gov-indicators,17/11/2022 12:08,,,,,,,,,,
b_group55,https://data.world/cheeann/unicorn-startups-2015-2022,21/11/2022 21:39,,,,,,,,,,
b_group95,https://data.world/evangower/fifa-world-cup-matches,27/11/2022 15:08,,,,,,,,,,
a_group120,https://data.world/garyhoov/2012-us-retail-sales,30/11/2022 02:07,,,,,,,,,,
a_group118,https://data.world/data-society/airplane-crashes,05/12/2022 12:50,this group has two datasets assigned,,,,,,,,,
a_group24,No dataset is suitable,NA,,,,,,,,,,
a_group9,No dataset is suitable,NA,,,,,,,,,,
b_group81,No dataset is suitable,NA,,,,,,,,,,
b_group85,No dataset is suitable,NA,,,,,,,,,,
b_group36,missing,,,,,,,,,,,
b_group41,missing,,,,,,,,,,,
b_group93,missing,,,,,,,,,,,
b_group96,missing,,,,,,,,,,,
a_group8,https://data.world/rahulmudaliar/bike-company-ranking,06/12/2022 14:07,viz deliverable,,,,,,,,,
a_group25,https://data.world/rezaghari/fifa-worldcup-2018,06/12/2022 14:07,viz deliverable,,,,,,,,,
a_group28,https://data.world/aurielle/inc-5000-10-years,06/12/2022 14:07,viz deliverable,,,,,,,,,
a_group36,https://data.world/revanthkrishnaa/amazon-uk-sales-forecasting-2018-2021,06/12/2022 14:07,viz deliverable,,,,,,,,,
a_group93,https://data.world/josh-nbu/books.csv,06/12/2022 14:07,viz deliverable,,,,,,,,,
a_group99,https://data.world/sai20aji/ev-data/EVCData.csv,06/12/2022 14:07,viz deliverable,,,,,,,,,
a_group109,https://data.world/fivethirtyeight/airline-safety,06/12/2022 14:07,viz deliverable,,,,,,,,,
a_group157,https://data.world/city-of-bloomington/f560924e-e346-4fbb-9c9a-3f3cfe49b885,06/12/2022 14:07,viz deliverable,,,,,,,,,
a_group173,https://data.world/codefordc/occupational-employment-growth-projections,06/12/2022 14:07,viz deliverable,,,,,,,,,
a_group176,https://data.world/city-of-ny/uedp-fegm,06/12/2022 14:07,viz deliverable,,,,,,,,,
b_group21,https://data.world/johnsnowlabs/housing-and-development-complaint-problems,06/12/2022 14:07,viz deliverable,,,,,,,,,
b_group36,https://data.world/qinzhang0131/coffee-sales,06/12/2022 14:07,viz deliverable,,,,,,,,,
b_group37,https://data.world/raghu543/ipl-data-till-2016-set-of-csv-files,06/12/2022 14:07,viz deliverable,,,,,,,,,
b_group41,https://data.world/rare-dev/example-ingest,06/12/2022 14:07,viz deliverable,,,,,,,,,
b_group49,https://data.world/14thlevelcleric/caseys-money,06/12/2022 14:07,viz deliverable,,,,,,,,,
b_group53,https://data.world/silaskro/literacy-rates-across-countries-regions-and-ages,06/12/2022 14:07,viz deliverable,,,,,,,,,
b_group62,https://data.world/fivethirtyeight/alcohol-consumption,06/12/2022 14:07,viz deliverable,,,,,,,,,
b_group64,https://data.world/jgrosch/deloitte-technology-fast-500-2017-north-america,06/12/2022 14:07,viz deliverable,,,,,,,,,
b_group70,https://data.world/ucr/crime-in-us-2013-offenses,06/12/2022 14:07,viz deliverable,,,,,,,,,
b_group72,https://data.world/stanke/sample-superstore-2018,06/12/2022 14:07,viz deliverable,,,,,,,,,
b_group82,https://data.world/dos/fy08-global-economic-indicator,06/12/2022 14:07,viz deliverable,,,,,,,,,
b_group98,https://data.world/fivethirtyeight/world-cup-comparisons,06/12/2022 14:07,viz deliverable,,,,,,,,,
a_group156,https://data.world/garyhoov/unemployment-rate-by-city,06/12/2022 14:07,script fail correction (duplication OK),,,,,,,,,
a_group185,https://data.world/ahalps/social-influence-on-shopping,06/12/2022 20:00,script fail correction (duplication OK),,,,,,,,,
b_group52,https://data.world/mattschroyer/netflix-original-series,06/12/2022 20:00,script fail correction (duplication OK),,,,,,,,,
a_group32,https://data.world/dkmohnaty/cricket-world-cup-winners,06/12/2022 20:28,script fail correction (duplication OK),,,,,,,,,
a_group138,https://data.world/mhoangvslev/steam-games-dataset,06/12/2022 20:28,script fail correction (duplication OK),,,,,,,,,
a_group156,https://data.world/garyhoov/unemployment-rate-by-city,06/12/2022 20:28,script fail correction (duplication OK),,,,,,,,,
a_group185,https://data.world/makeovermonday/2018w40-five-year-cancer-survival-rates-in-america,06/12/2022 20:28,script fail correction (duplication OK),,,,,,,,,
b_group52,https://data.world/mattschroyer/netflix-original-series,06/12/2022 20:28,script fail correction (duplication OK),,,,,,,,,
b_group68,https://data.world/ahalps/social-influence-on-shopping,06/12/2022 20:28,script fail correction (duplication OK),,,,,,,,,
a_group189,https://data.world/drhimanshur/motives-of-reported-cyber-crimes-in-india-state-wise-2013,06/12/2022 20:42,manual change (duplication OK),,,,,,,,,
a_group35,https://data.world/shaheer-rajpoot/gdp-and-import-growth,07/12/2022,manual change (duplication OK).,,,,,,,,,
a_group24,https://data.world/associatedpress/mass-killings-public/workspace/file?filename=mass_killing_victims_public.csv,08/12/2022 12:03,1st choice in pref survey - replaces previous disallowed duplicated dataset,,,,,,,,https://data.world/associatedpress/mass-killings-public/workspace/file?filename=mass_killing_incidents_public.csv,
